{
   "Elements" : [
      {
         "Name" : "Xsym",
         "NodalConnectivity" : [
            [ 1, 0, 2, 3 ]
         ],
         "Type" : 3
      },
      {
         "Name" : "Ysym",
         "NodalConnectivity" : [
            [ 1, 5, 4, 0 ]
         ],
         "Type" : 3
      },
      {
         "Name" : "ZLoad",
         "NodalConnectivity" : [
            [ 0, 4, 6, 2 ]
         ],
         "Type" : 3
      },
      {
         "Name" : "Zsym",
         "NodalConnectivity" : [
            [ 1, 3, 7, 5 ]
         ],
         "Type" : 3
      },
      {
         "Name" : "cube",
         "NodalConnectivity" : [
            [ 2, 0, 1, 3, 6, 4, 5, 7 ]
         ],
         "Type" : 5
      }
   ],
   "Nodes" : [
      {
         "Coordinates" : [
            [ 0, 0, 1 ],
            [ 0, 0, 0 ],
            [ 0, 1, 1 ],
            [ 0, 1, 0 ],
            [ 1, 0, 1 ],
            [ 1, 0, 0 ],
            [ 1, 1, 1 ],
            [ 1, 1, 0 ]
         ]
      }
   ]
}
